{"frames": {

"bulbasaur_walk_down_01":
{
	"frame": {"x":1,"y":43,"w":17,"h":18},
	"rotated": false,
	"trimmed": true,
	"spriteSourceSize": {"x":8,"y":14,"w":17,"h":18},
	"sourceSize": {"w":32,"h":32},
	"anchor": {"x":0.5,"y":0.9375}
},
"bulbasaur_walk_down_02":
{
	"frame": {"x":43,"y":20,"w":17,"h":18},
	"rotated": true,
	"trimmed": true,
	"spriteSourceSize": {"x":7,"y":14,"w":17,"h":18},
	"sourceSize": {"w":32,"h":32},
	"anchor": {"x":0.5,"y":0.9375}
},
"bulbasaur_walk_left_01":
{
	"frame": {"x":1,"y":1,"w":21,"h":17},
	"rotated": false,
	"trimmed": true,
	"spriteSourceSize": {"x":5,"y":14,"w":21,"h":17},
	"sourceSize": {"w":32,"h":32},
	"anchor": {"x":0.5,"y":0.9375}
},
"bulbasaur_walk_left_02":
{
	"frame": {"x":24,"y":1,"w":21,"h":17},
	"rotated": false,
	"trimmed": true,
	"spriteSourceSize": {"x":4,"y":14,"w":21,"h":17},
	"sourceSize": {"w":32,"h":32},
	"anchor": {"x":0.5,"y":0.9375}
},
"bulbasaur_walk_right_01":
{
	"frame": {"x":1,"y":20,"w":21,"h":17},
	"rotated": true,
	"trimmed": true,
	"spriteSourceSize": {"x":7,"y":14,"w":21,"h":17},
	"sourceSize": {"w":32,"h":32},
	"anchor": {"x":0.5,"y":0.9375}
},
"bulbasaur_walk_right_02":
{
	"frame": {"x":20,"y":20,"w":21,"h":17},
	"rotated": false,
	"trimmed": true,
	"spriteSourceSize": {"x":6,"y":14,"w":21,"h":17},
	"sourceSize": {"w":32,"h":32},
	"anchor": {"x":0.5,"y":0.9375}
},
"bulbasaur_walk_up_01":
{
	"frame": {"x":47,"y":1,"w":15,"h":17},
	"rotated": false,
	"trimmed": true,
	"spriteSourceSize": {"x":8,"y":15,"w":15,"h":17},
	"sourceSize": {"w":32,"h":32},
	"anchor": {"x":0.5,"y":0.9375}
},
"bulbasaur_walk_up_02":
{
	"frame": {"x":20,"y":39,"w":15,"h":17},
	"rotated": false,
	"trimmed": true,
	"spriteSourceSize": {"x":9,"y":15,"w":15,"h":17},
	"sourceSize": {"w":32,"h":32},
	"anchor": {"x":0.5,"y":0.9375}
}},
"animations": {
	"bulbasaur_walk_down": ["bulbasaur_walk_down_01","bulbasaur_walk_down_02"],
	"bulbasaur_walk_left": ["bulbasaur_walk_left_01","bulbasaur_walk_left_02"],
	"bulbasaur_walk_right": ["bulbasaur_walk_right_01","bulbasaur_walk_right_02"],
	"bulbasaur_walk_up": ["bulbasaur_walk_up_01","bulbasaur_walk_up_02"]
},
"meta": {
	"app": "https://www.codeandweb.com/texturepacker",
	"version": "1.0",
	"image": "bulbasaur.png",
	"format": "RGBA8888",
	"size": {"w":64,"h":64},
	"scale": "1",
	"smartupdate": "$TexturePacker:SmartUpdate:25aa952d918245b20ababb7ad88fdfd3:11244f5d8fcf0d62be6ab13aa2e8e88b:7a437c36fe0ce61dbbe8f04abb4adfae$"
}
}
